
"lang" 
{ 
"Language" "Dutch" 
"Tokens" 
{ 

"Team_Security"					"Special Forces"
"Team_Insurgents"				"Insurgents"

"Squad_Gnalvl_Rifleman"			"Rifleman" //unassigned
"Squad_Gnalvl_Marksman"			"Marksman" //unassigned

"Squad_Gnalvl_SquadLeader"		"Squad Lieutenant" //Devgru beard
"Squad_Gnalvl_TeamLeader"		"Fire-Team Leader" //Devgru beard 2
"Squad_Gnalvl_Rifleman_AT"		"Rifleman(AT)" //SFOD Mask
"Squad_Gnalvl_Engineer"			"Combat Engineer" //US_Marpat Beard face, //Devgru vip

"Squad_Gnalvl_Auto"				"Automatic Rifleman" //Generic
"Squad_Gnalvl_Riflepoint"		"Rifleman(Point)" //USMC Black guy
"Squad_Gnalvl_Medic"			"Combat Medic"	//Generic

"Squad_Gnalvl_TeamLeader_Recon"	"Recon-Team Leader" //SFOD mask
"Squad_Gnalvl_ReconMedic"		"Medic Specialist" //ST3 Generic
"Squad_Gnalvl_SDM"				"Designated Marksman" //ST3 Generic
"Squad_Gnalvl_Spotter"			"Marksman(Spotter)" //ST3 Generic
"Squad_Gnalvl_Recon_Engineer"			"Recon Engineer" //US_Marpat Beard face, //Devgru vip

/////////////////////////AMMO UPGRADE/////////////////// CHARACTER COUNT FOR NEW LINE ~36!!!

//M16 //556x45
"weapon_upgrade_mk262_20i_std"					"U.S. Mk262 20i|556x45"
"weapon_upgrade_mk262_20i_std_desc"			"Spread Frac(lower = accurate): 0.5\nDmg: 110 @ 1m to 46 @ 228m\nAmmo/Plyr Mult. (Dmg * Am * Pm):\nHEAD: 1.7 | PlyrMult: 1.65\nCHEST: 1.6 | PlyrMult: 1.65\nSTOMACH: 1.6 | PlyrMult: 1.35\nARMS: 0.62 | PlyrMult: 0.9\nLEGS: 0.62 | PlyrMult: 0.8\nPenetration Power(Mat. alters depth):\nTravel of 1m passes 7.6m of wall\nTravel of 228m passes 2.9m of wall"

//M16 //556x45_hp
"weapon_upgrade_mk262_20i"					"U.S. Mk262 OTM 20i|556x45"
"weapon_upgrade_mk262_20i_desc"			"Spread Frac(lower = accurate): 0.5\nDmg: 110 @ 1m to 46 @ 228m\nAmmo/Plyr Mult. (Dmg * Am * Pm):\nHEAD: 1.7 | PlyrMult: 1.65\nCHEST: 1.6 | PlyrMult: 1.65\nSTOMACH: 1.6 | PlyrMult: 1.35\nARMS: 0.62 | PlyrMult: 0.9\nLEGS: 0.62 | PlyrMult: 0.8\nPenetration Power(Mat. alters depth):\nTravel of 1m passes 7.6m of wall\nTravel of 228m passes 2.9m of wall"

//m249 //556x45_hp
"weapon_upgrade_mk262_m249_20i"					"U.S. Mk262 OTM 20i|556x45"
"weapon_upgrade_mk262_m249_20i_desc"			"Spread Frac(lower = accurate): 0.5\nDmg: 110 @ 1m to 46 @ 228m\nAmmo/Plyr Mult. (Dmg * Am * Pm):\nHEAD: 1.7 | PlyrMult: 1.65\nCHEST: 1.6 | PlyrMult: 1.65\nSTOMACH: 1.6 | PlyrMult: 1.35\nARMS: 0.62 | PlyrMult: 0.9\nLEGS: 0.62 | PlyrMult: 0.8\nPenetration Power(Mat. alters depth):\nTravel of 1m passes 7.6m of wall\nTravel of 228m passes 2.9m of wall"

//mk46 //556x45_hp
"weapon_upgrade_mk262_mk46_20i"					"U.S. Mk262 OTM 20i|556x45"
"weapon_upgrade_mk262_mk46_20i_desc"			"Spread Frac(lower = accurate): 0.5\nDmg: 110 @ 1m to 46 @ 228m\nAmmo/Plyr Mult. (Dmg * Am * Pm):\nHEAD: 1.7 | PlyrMult: 1.65\nCHEST: 1.6 | PlyrMult: 1.65\nSTOMACH: 1.6 | PlyrMult: 1.35\nARMS: 0.62 | PlyrMult: 0.9\nLEGS: 0.62 | PlyrMult: 0.8\nPenetration Power(Mat. alters depth):\nTravel of 1m passes 7.6m of wall\nTravel of 228m passes 2.9m of wall"

//m16 //556x45_ap
"weapon_upgrade_m995"					"U.S. M995 AP|556x45"
"weapon_upgrade_m995_desc"				"Spread Frac(lower = accurate): 1.5\nDmg: 110 @ 1m to 46 @ 228m\nAmmo/Plyr Mult. (Dmg * Am * Pm):\nHEAD: 2.5 | PlyrMult: 1.65\nCHEST: 2.4 | PlyrMult: 1.65\nSTOMACH: 2.4 | PlyrMult: 1.35\nARMS: 0.22 | PlyrMult: 0.9\nLEGS: 0.22 | PlyrMult: 0.8\nPenetration Power(Mat. alters depth):\nTravel of 1m passes 7.6m of wall\nTravel of 228m passes 2.9m of wall"

//m249 //556x45_ap
"weapon_upgrade_m249_m995"					"U.S. M995 AP|556x45"
"weapon_upgrade_m249_m995_desc"				"Spread Frac(lower = accurate): 1.5\nDmg: 110 @ 1m to 46 @ 228m\nAmmo/Plyr Mult. (Dmg * Am * Pm):\nHEAD: 2.5 | PlyrMult: 1.65\nCHEST: 2.4 | PlyrMult: 1.65\nSTOMACH: 2.4 | PlyrMult: 1.35\nARMS: 0.22 | PlyrMult: 0.9\nLEGS: 0.22 | PlyrMult: 0.8\nPenetration Power(Mat. alters depth):\nTravel of 1m passes 7.6m of wall\nTravel of 228m passes 2.9m of wall"

//mk46 //556x45_ap
"weapon_upgrade_mk46_m995"					"U.S. M995 AP|556x45"
"weapon_upgrade_mk46_m995_desc"				"Spread Frac(lower = accurate): 1.5\nDmg: 110 @ 1m to 46 @ 228m\nAmmo/Plyr Mult. (Dmg * Am * Pm):\nHEAD: 2.5 | PlyrMult: 1.65\nCHEST: 2.4 | PlyrMult: 1.65\nSTOMACH: 2.4 | PlyrMult: 1.35\nARMS: 0.22 | PlyrMult: 0.9\nLEGS: 0.22 | PlyrMult: 0.8\nPenetration Power(Mat. alters depth):\nTravel of 1m passes 7.6m of wall\nTravel of 228m passes 2.9m of wall"

//MK48 //762x51_ap
"weapon_upgrade_mk48_m993_ap"				"I.L. M61 AP|762x51"
"weapon_upgrade_mk48_m993_ap_desc"			"Spread Frac(lower = accurate): 0.88\nDmg: 160 @ 1m to 100 @ 381m\nAmmo/Plyr Mult. (Dmg * Am * Pm):\nHEAD: 2.77 | PlyrMult: 1.65\nCHEST: 2.67 | PlyrMult: 1.65\nSTOMACH: 2.67 | PlyrMult: 1.35\nARMS: 0.38 | PlyrMult: 0.9\nLEGS: 0.38 | PlyrMult: 0.8\nPenetration Power(Mat. alters depth):\nTravel of 1m passes 28.5m of wall\nTravel of 381m passes 15m of wall"

//MK48 //762x51_hp
"weapon_upgrade_mk48_prvi_hp"					"PRVI 168gr OTM|762x51"
"weapon_upgrade_mk48_prvi_hp_desc"				"Spread Frac(lower = accurate): 0.75\nDmg: 160 @ 1m to 100 @ 381m\nAmmo/Plyr Mult. (Dmg * Am * Pm):\nHEAD: 2.07 | PlyrMult: 1.65\nCHEST: 1.97 | PlyrMult: 1.65\nSTOMACH: 1.97 | PlyrMult: 1.35\nARMS: 0.78 | PlyrMult: 0.9\nLEGS: 0.78 | PlyrMult: 0.8\nPenetration Power(Mat. alters depth):\nTravel of 1m passes 7.6m of wall\nTravel of 228m passes 3.8m of wall"


//Mk18, m4a1 //556x45_car_hp
"weapon_upgrade_mk262_10i"					"U.S. Mk262 OTM 10i|556x45_CAR"
"weapon_upgrade_mk262_10i_desc"			"Spread Frac(lower = accurate): 0.5\nDmg: 85 @ 1m to 46 @ 228m\nAmmo/Plyr Mult. (Dmg * Am * Pm):\nHEAD: 1.7 | PlyrMult: 1.65\nCHEST: 1.6 | PlyrMult: 1.65\nSTOMACH: 1.6 | PlyrMult: 1.35\nARMS: 0.62 | PlyrMult: 0.9\nLEGS: 0.62 | PlyrMult: 0.8\nPenetration Power(Mat. alters depth):\nTravel of 1m passes 7.6m of wall\nTravel of 228m passes 2.9m of wall"

//mk18, m4a1 //556x45_car_ap
"weapon_upgrade_m995_car"					"U.S. M995 AP CAR|556x45_CAR"
"weapon_upgrade_m995_car_desc"				"Spread Frac(lower = accurate): 1.5\nDmg: 85 @ 1m to 46 @ 228m\nAmmo/Plyr Mult. (Dmg * Am * Pm):\nHEAD: 2.5 | PlyrMult: 1.65\nCHEST: 2.4 | PlyrMult: 1.65\nSTOMACH: 2.4 | PlyrMult: 1.35\nARMS: 0.22 | PlyrMult: 0.9\nLEGS: 0.22 | PlyrMult: 0.8\nPenetration Power(Mat. alters depth):\nTravel of 1m passes 7.6m of wall\nTravel of 228m passes 2.9m of wall"

//M16 //556x45_sost
"weapon_upgrade_mk318_20i"					"U.S. Mk318 OTM 20i|556x45_SOST"
"weapon_upgrade_mk318_20i_desc"			"Spread Frac(lower = accurate): 1.25\nDmg: 110 @ 1m to 46 @ 228m\nAmmo/Plyr Mult. (Dmg * Am * Pm):\nHEAD: 1.5 | PlyrMult: 1.65\nCHEST: 1.4 | PlyrMult: 1.65\nSTOMACH: 1.4 | PlyrMult: 1.35\nARMS: 0.72 | PlyrMult: 0.9\nLEGS: 0.72 | PlyrMult: 0.8\nPenetration Power(Mat. alters depth):\nTravel of 1m passes 18m of wall\nTravel of 228m passes 5.7m of wall"

//m249 //556x45_sost
"weapon_upgrade_mk318_m249_20i"					"U.S. Mk318 OTM 20i|556x45_SOST"
"weapon_upgrade_mk318_m249_20i_desc"			"Spread Frac(lower = accurate): 1.25\nDmg: 110 @ 1m to 46 @ 228m\nAmmo/Plyr Mult. (Dmg * Am * Pm):\nHEAD: 1.5 | PlyrMult: 1.65\nCHEST: 1.4 | PlyrMult: 1.65\nSTOMACH: 1.4 | PlyrMult: 1.35\nARMS: 0.72 | PlyrMult: 0.9\nLEGS: 0.72 | PlyrMult: 0.8\nPenetration Power(Mat. alters depth):\nTravel of 1m passes 18m of wall\nTravel of 228m passes 5.7m of wall"

//Mk18 //556x45_sost_mk18
"weapon_upgrade_mk318_10i"					"U.S. Mk318 OTM 10i|556x45_SOST"
"weapon_upgrade_mk318_10i_desc"			"Spread Frac(lower = accurate): 1.25\nDmg: 100 @ 1m to 46 @ 228m\nAmmo/Plyr Mult. (Dmg * Am * Pm):\nHEAD: 1.47 | PlyrMult: 1.65\nCHEST: 1.37 | PlyrMult: 1.65\nSTOMACH: 1.37 | PlyrMult: 1.35\nARMS: 0.75 | PlyrMult: 0.9\nLEGS: 0.75 | PlyrMult: 0.8\nPenetration Power(Mat. alters depth):\nTravel of 1m passes 19m of wall\nTravel of 228m passes 4.7m of wall"


//mini14 //556x45_ap_13i
"weapon_upgrade_m995_13i"					"U.S. M995 AP 13i|556x45"
"weapon_upgrade_m995_13i_desc"				"Spread Frac(lower = accurate): 1.5\nDmg: 100 @ 1m to 46 @ 228m\nAmmo/Plyr Mult. (Dmg * Am * Pm):\nHEAD: 2.5 | PlyrMult: 1.65\nCHEST: 2.4 | PlyrMult: 1.65\nSTOMACH: 2.4 | PlyrMult: 1.35\nARMS: 0.22 | PlyrMult: 0.9\nLEGS: 0.22 | PlyrMult: 0.8\nPenetration Power(Mat. alters depth):\nTravel of 1m passes 7.6m of wall\nTravel of 228m passes 2.9m of wall"


//mini14 //556x45_hp_13i
"weapon_upgrade_mk262_13i"					"U.S. Mk262 OTM 13i|556x45"
"weapon_upgrade_mk262_13i_desc"			"Spread Frac(lower = accurate): 0.5\nDmg: 100 @ 1m to 46 @ 228m\nAmmo/Plyr Mult. (Dmg * Am * Pm):\nHEAD: 1.7 | PlyrMult: 1.65\nCHEST: 1.6 | PlyrMult: 1.65\nSTOMACH: 1.6 | PlyrMult: 1.35\nARMS: 0.62 | PlyrMult: 0.9\nLEGS: 0.62 | PlyrMult: 0.8\nPenetration Power(Mat. alters depth):\nTravel of 1m passes 7.6m of wall\nTravel of 228m passes 2.9m of wall"

//Mini14 //556x45_sost_13i
"weapon_upgrade_mk318_13i"					"U.S. Mk318 OTM 13i|556x45"
"weapon_upgrade_mk318_13i_desc"			"Spread Frac(lower = accurate): 1.25\nDmg: 110 @ 1m to 46 @ 228m\nAmmo/Plyr Mult. (Dmg * Am * Pm):\nHEAD: 1.5 | PlyrMult: 1.65\nCHEST: 1.4 | PlyrMult: 1.65\nSTOMACH: 1.4 | PlyrMult: 1.35\nARMS: 0.72 | PlyrMult: 0.9\nLEGS: 0.72 | PlyrMult: 0.8\nPenetration Power(Mat. alters depth):\nTravel of 1m passes 18m of wall\nTravel of 228m passes 5.7m of wall"

//m14 //762x51_ap
"weapon_upgrade_m993"					"U.S. M993 AP|762x51"
"weapon_upgrade_m993_desc"				"Spread Frac(lower = accurate): 0.88\nDmg: 160 @ 1m to 100 @ 381m\nAmmo/Plyr Mult. (Dmg * Am * Pm):\nHEAD: 2.77 | PlyrMult: 1.65\nCHEST: 2.67 | PlyrMult: 1.65\nSTOMACH: 2.67 | PlyrMult: 1.35\nARMS: 0.38 | PlyrMult: 0.9\nLEGS: 0.38 | PlyrMult: 0.8\nPenetration Power(Mat. alters depth):\nTravel of 1m passes 28.5m of wall\nTravel of 381m passes 15m of wall"

//Fal //762x51_ap
"weapon_upgrade_m993_ins"				"I.L. M61 AP|762x51"
"weapon_upgrade_m993_ins_desc"			"Spread Frac(lower = accurate): 0.88\nDmg: 160 @ 1m to 100 @ 381m\nAmmo/Plyr Mult. (Dmg * Am * Pm):\nHEAD: 2.77 | PlyrMult: 1.65\nCHEST: 2.67 | PlyrMult: 1.65\nSTOMACH: 2.67 | PlyrMult: 1.35\nARMS: 0.38 | PlyrMult: 0.9\nLEGS: 0.38 | PlyrMult: 0.8\nPenetration Power(Mat. alters depth):\nTravel of 1m passes 28.5m of wall\nTravel of 381m passes 15m of wall"

//fal //762x51_hp
"weapon_upgrade_prvi"					"PRVI 168gr OTM|762x51"
"weapon_upgrade_prvi_desc"				"Spread Frac(lower = accurate): 0.75\nDmg: 160 @ 1m to 100 @ 381m\nAmmo/Plyr Mult. (Dmg * Am * Pm):\nHEAD: 2.07 | PlyrMult: 1.65\nCHEST: 1.97 | PlyrMult: 1.65\nSTOMACH: 1.97 | PlyrMult: 1.35\nARMS: 0.78 | PlyrMult: 0.9\nLEGS: 0.78 | PlyrMult: 0.8\nPenetration Power(Mat. alters depth):\nTravel of 1m passes 7.6m of wall\nTravel of 228m passes 3.8m of wall"

//L1a1  //762x51_ap
"weapon_upgrade_m993_l1_ins"				"I.L. M61 L1 AP|762x51"
"weapon_upgrade_m993_l1_ins_desc"			"Spread Frac(lower = accurate): 0.88\nDmg: 160 @ 1m to 100 @ 381m\nAmmo/Plyr Mult. (Dmg * Am * Pm):\nHEAD: 2.77 | PlyrMult: 1.65\nCHEST: 2.67 | PlyrMult: 1.65\nSTOMACH: 2.67 | PlyrMult: 1.35\nARMS: 0.38 | PlyrMult: 0.9\nLEGS: 0.38 | PlyrMult: 0.8\nPenetration Power(Mat. alters depth):\nTravel of 1m passes 28.5m of wall\nTravel of 381m passes 15m of wall"

//l1a1 //762x51_hp
"weapon_upgrade_prvi_l1"					"PRVI 168gr OTM|762x51"
"weapon_upgrade_prvi_l1_desc"				"Spread Frac(lower = accurate): 0.75\nDmg: 160 @ 1m to 100 @ 381m\nAmmo/Plyr Mult. (Dmg * Am * Pm):\nHEAD: 2.07 | PlyrMult: 1.65\nCHEST: 1.97 | PlyrMult: 1.65\nSTOMACH: 1.97 | PlyrMult: 1.35\nARMS: 0.78 | PlyrMult: 0.9\nLEGS: 0.78 | PlyrMult: 0.8\nPenetration Power(Mat. alters depth):\nTravel of 1m passes 7.6m of wall\nTravel of 228m passes 3.8m of wall"

//m14 //762x51_hp_lr
"weapon_upgrade_m118lr"					"U.S. M118LR OTM|762x51"
"weapon_upgrade_m118lr_desc"			"Spread Frac(lower = accurate): 0.35\nDmg: 160 @ 1m to 100 @ 381m\nAmmo/Plyr Mult. (Dmg * Am * Pm):\nHEAD: 1.97 | PlyrMult: 1.65\nCHEST: 1.87 | PlyrMult: 1.65\nSTOMACH: 1.87 | PlyrMult: 1.35\nARMS: 0.78 | PlyrMult: 0.9\nLEGS: 0.78 | PlyrMult: 0.8\nPenetration Power(Mat. alters depth):\nTravel of 1m passes 7.6m of wall\nTravel of 228m passes 3.8m of wall"

//m14 //762x51_hp
"weapon_upgrade_mk319"					"U.S. Mk319 OTM|762x51"
"weapon_upgrade_mk319_desc"				"Spread Frac(lower = accurate): 0.75\nDmg: 160 @ 1m to 100 @ 381m\nAmmo/Plyr Mult. (Dmg * Am * Pm):\nHEAD: 2.07 | PlyrMult: 1.65\nCHEST: 1.97 | PlyrMult: 1.65\nSTOMACH: 1.97 | PlyrMult: 1.35\nARMS: 0.78 | PlyrMult: 0.9\nLEGS: 0.78 | PlyrMult: 0.8\nPenetration Power(Mat. alters depth):\nTravel of 1m passes 7.6m of wall\nTravel of 228m passes 3.8m of wall"

//m107 //BMG_ap
"weapon_upgrade_50bmg_ap"					"M903 SLAP|.50 BMG"
"weapon_upgrade_50bmg_ap_desc"				"Spread Frac(lower = accurate): 0.42\nDmg: 405 @ 1m to 320 @ 762m\nAmmo/Plyr Mult. (Dmg * Am * Pm):\nHEAD: 8.4 | PlyrMult: 1.65\nCHEST: 8.3 | PlyrMult: 1.65\nSTOMACH: 8.3 | PlyrMult: 1.35\nARMS: 3.0 | PlyrMult: 0.9\nLEGS: 3.0 | PlyrMult: 0.8\nPenetration Power(Mat. alters depth):\nTravel of 1m passes 59m of wall\nTravel of 762m passes 40m of wall"

//m107 //BMG_hp
"weapon_upgrade_50bmg_hp"					"M33 OTM|.50 BMG"
"weapon_upgrade_50bmg_hp_desc"				"Spread Frac(lower = accurate): 0.12\nDmg: 405 @ 1m to 320 @ 762m\nAmmo/Plyr Mult. (Dmg * Am * Pm):\nHEAD: 7.5 | PlyrMult: 1.65\nCHEST: 7.4 | PlyrMult: 1.65\nSTOMACH: 7.4 | PlyrMult: 1.35\nARMS: 3.8 | PlyrMult: 0.9\nLEGS: 3.8 | PlyrMult: 0.8\nPenetration Power(Mat. alters depth):\nTravel of 1m passes 38m of wall\nTravel of 762m passes 28.6m of wall"

//m40a1 //762x51mm_hp
"weapon_upgrade_mk316_mod"					"U.S. Mk316 MOD OTM|762x51mm"
"weapon_upgrade_mk316_mod_desc"				"Spread Frac(lower = accurate): 0.28\nDmg: 200 @ 1m to 120 @ 381m\nAmmo/Plyr Mult. (Dmg * Am * Pm):\nHEAD: 5.5 | PlyrMult: 1.65\nCHEST: 5.4 | PlyrMult: 1.65\nSTOMACH: 5.4 | PlyrMult: 1.35\nARMS: 1.8 | PlyrMult: 0.9\nLEGS: 1.8 | PlyrMult: 0.8\nPenetration Power(Mat. alters depth):\nTravel of 1m passes 19m of wall\nTravel of 381m passes 9.5m of wall"

//m40a1 //762x51mm_ap
"weapon_upgrade_m993_bolt"					"U.S. M993 AP|762x51mm"
"weapon_upgrade_m993_bolt_desc"				"Spread Frac(lower = accurate): 0.88\nDmg: 200 @ 1m to 120 @ 381m\nAmmo/Plyr Mult. (Dmg * Am * Pm):\nHEAD: 6.4 | PlyrMult: 1.65\nCHEST: 6.3 | PlyrMult: 1.65\nSTOMACH: 6.3 | PlyrMult: 1.35\nARMS: 1.00 | PlyrMult: 0.9\nLEGS: 1.00 | PlyrMult: 0.8\nPenetration Power(Mat. alters depth):\nTravel of 1m passes 40m of wall\nTravel of 381m passes 20.1m of wall"


//akm, sks //762x39_lc
"weapon_upgrade_m67"					"Yugo M67 FMJ|762x39_LC"
"weapon_upgrade_m67_desc"				"Spread Frac(lower = accurate): 0.83\nDmg: 110 @ 1m to 71 @ 240m\nAmmo/Plyr Mult. (Dmg * Am * Pm):\nHEAD: 2.07 | PlyrMult: 1.65\nCHEST: 1.97 | PlyrMult: 1.65\nSTOMACH: 1.97 | PlyrMult: 1.35\nARMS: 0.78 | PlyrMult: 0.9\nLEGS: 0.78 | PlyrMult: 0.8\nPenetration Power(Mat. alters depth):\nTravel of 1m passes 18.1m of wall\nTravel of 228m passes 8.5m of wall"

//akm, vz58, sks //762x39_AP
"weapon_upgrade_7n23"					"R.U. 7N23 AP|762x39"
"weapon_upgrade_7n23_desc"				"Spread Frac(lower = accurate): 0.88\nDmg: 110 @ 1m to 85 @ 228m\nAmmo/Plyr Mult. (Dmg * Am * Pm):\nHEAD: 2.67 | PlyrMult: 1.65\nCHEST: 2.57 | PlyrMult: 1.65\nSTOMACH: 2.57 | PlyrMult: 1.35\nARMS: 0.38 | PlyrMult: 0.9\nLEGS: 0.38 | PlyrMult: 0.8\nPenetration Power(Mat. alters depth):\nTravel of 1m passes 19m of wall\nTravel of 228m passes 9.5m of wall"

//akm, vz58, sks //762x39_HP
"weapon_upgrade_8m3"					"Saspan 8M3 JHP|762x39"
"weapon_upgrade_8m3_desc"				"Spread Frac(lower = accurate): 0.67\nDmg: 110 @ 1m to 85 @ 228m\nAmmo/Plyr Mult. (Dmg * Am * Pm):\nHEAD: 1.97 | PlyrMult: 1.65\nCHEST: 1.87 | PlyrMult: 1.65\nSTOMACH: 1.87 | PlyrMult: 1.35\nARMS: 0.78 | PlyrMult: 0.9\nLEGS: 0.78 | PlyrMult: 0.8\nPenetration Power(Mat. alters depth):\nTravel of 1m passes 8.5m of wall\nTravel of 228m passes 4.8m of wall"

//rpk //762x39_lc
"weapon_upgrade_rpk_m67"					"Yugo M67 FMJ|762x39_LC"
"weapon_upgrade_rpk_m67_desc"				"Spread Frac(lower = accurate): 0.83\nDmg: 100 @ 1m to 71 @ 240m\nAmmo/Plyr Mult. (Dmg * Am * Pm):\nHEAD: 2.07 | PlyrMult: 1.65\nCHEST: 1.97 | PlyrMult: 1.65\nSTOMACH: 1.97 | PlyrMult: 1.35\nARMS: 0.78 | PlyrMult: 0.9\nLEGS: 0.78 | PlyrMult: 0.8\nPenetration Power(Mat. alters depth):\nTravel of 1m passes 18.1m of wall\nTravel of 228m passes 8.5m of wall"

//rpk //762x39_AP
"weapon_upgrade_rpk_7n23"					"R.U. 7N23 AP|762x39"
"weapon_upgrade_rpk_7n23_desc"				"Spread Frac(lower = accurate): 0.88\nDmg: 100 @ 1m to 85 @ 228m\nAmmo/Plyr Mult. (Dmg * Am * Pm):\nHEAD: 2.67 | PlyrMult: 1.65\nCHEST: 2.57 | PlyrMult: 1.65\nSTOMACH: 2.57 | PlyrMult: 1.35\nARMS: 0.38 | PlyrMult: 0.9\nLEGS: 0.38 | PlyrMult: 0.8\nPenetration Power(Mat. alters depth):\nTravel of 1m passes 19m of wall\nTravel of 228m passes 9.5m of wall"

//rpk //762x39_HP
"weapon_upgrade_rpk_8m3"					"Saspan 8M3 JHP|762x39"
"weapon_upgrade_rpk_8m3_desc"				"Spread Frac(lower = accurate): 0.67\nDmg: 100 @ 1m to 85 @ 228m\nAmmo/Plyr Mult. (Dmg * Am * Pm):\nHEAD: 1.97 | PlyrMult: 1.65\nCHEST: 1.87 | PlyrMult: 1.65\nSTOMACH: 1.87 | PlyrMult: 1.35\nARMS: 0.78 | PlyrMult: 0.9\nLEGS: 0.78 | PlyrMult: 0.8\nPenetration Power(Mat. alters depth):\nTravel of 1m passes 8.5m of wall\nTravel of 228m passes 4.8m of wall"


//rpk74m //545x39_AP
"weapon_upgrade_rpk74m_7n34"					"R.U. 7N34 AP|545x39"
"weapon_upgrade_rpk74m_7n34_desc"				"Spread Frac(lower = accurate): 0.88\nDmg: 85 @ 1m to 85 @ 152m\nAmmo/Plyr Mult. (Dmg * Am * Pm):\nHEAD: 2.35 | PlyrMult: 1.65\nCHEST: 2.25 | PlyrMult: 1.65\nSTOMACH: 2.25 | PlyrMult: 1.35\nARMS: 0.32 | PlyrMult: 0.9\nLEGS: 0.32 | PlyrMult: 0.8\nPenetration Power(Mat. alters depth):\nTravel of 1m passes 9.5m of wall\nTravel of 152m passes 4.8m of wall"

//rpk74m //545x39_HP
"weapon_upgrade_rpk74m_545sp"					"Barnaul 55gr JSP|545x39"
"weapon_upgrade_rpk74m_545sp_desc"				"Spread Frac(lower = accurate): 0.7\nDmg: 85 @ 1m to 85 @ 152m\nAmmo/Plyr Mult. (Dmg * Am * Pm):\nHEAD: 1.55 | PlyrMult: 1.65\nCHEST: 1.45 | PlyrMult: 1.65\nSTOMACH: 1.32 | PlyrMult: 1.35\nARMS: 0.72 | PlyrMult: 0.9\nLEGS: 0.72 | PlyrMult: 0.8\nPenetration Power(Mat. alters depth):\nTravel of 1m passes 3.8m of wall\nTravel of 152m passes 2.9m of wall"


//ak74, aks74u //545x39_hp
"weapon_upgrade_545sp"					"Barnaul 55gr JSP|545x39"
"weapon_upgrade_545sp_desc"				"Spread Frac(lower = accurate): 0.7\nDmg: 85 @ 1m to 85 @ 152m\nAmmo/Plyr Mult. (Dmg * Am * Pm):\nHEAD: 1.55 | PlyrMult: 1.65\nCHEST: 1.45 | PlyrMult: 1.65\nSTOMACH: 1.32 | PlyrMult: 1.35\nARMS: 0.72 | PlyrMult: 0.9\nLEGS: 0.72 | PlyrMult: 0.8\nPenetration Power(Mat. alters depth):\nTravel of 1m passes 3.8m of wall\nTravel of 152m passes 2.9m of wall"

//ak74, aks74u //545x39_ap
"weapon_upgrade_7n34"					"R.U. 7N34 AP|545x39"
"weapon_upgrade_7n34_desc"				"Spread Frac(lower = accurate): 0.88\nDmg: 85 @ 1m to 85 @ 152m\nAmmo/Plyr Mult. (Dmg * Am * Pm):\nHEAD: 2.35 | PlyrMult: 1.65\nCHEST: 2.25 | PlyrMult: 1.65\nSTOMACH: 2.25 | PlyrMult: 1.35\nARMS: 0.32 | PlyrMult: 0.9\nLEGS: 0.32 | PlyrMult: 0.8\nPenetration Power(Mat. alters depth):\nTravel of 1m passes 9.5m of wall\nTravel of 152m passes 4.8m of wall"

//Mosin //762x54mm_ap
"weapon_upgrade_7N13"					"R.U. 7N13 AP|762x54mm"
"weapon_upgrade_7N13_desc"				"Spread Frac(lower = accurate): 0.88\nDmg: 200 @ 1m to 120 @ 381m\nAmmo/Plyr Mult. (Dmg * Am * Pm):\nHEAD: 6.4 | PlyrMult: 1.65\nCHEST: 6.3 | PlyrMult: 1.65\nSTOMACH: 6.3 | PlyrMult: 1.35\nARMS: 1.00 | PlyrMult: 0.9\nLEGS: 1.00 | PlyrMult: 0.8\nPenetration Power(Mat. alters depth):\nTravel of 1m passes 40m of wall\nTravel of 381m passes 20.1m of wall"

//Mosin //762x54mm_sr
"weapon_upgrade_7n14"					"R.U. 7N14 SR HP|762x54mm_SR"
"weapon_upgrade_7n14_desc"				"Spread Frac(lower = accurate): 0.5\nDmg: 185 @ 1m to 125 @ 381m\nAmmo/Plyr Mult. (Dmg * Am * Pm):\nHEAD: 5.7 | PlyrMult: 1.65\nCHEST: 5.6 | PlyrMult: 1.65\nSTOMACH: 5.6 | PlyrMult: 1.35\nARMS: 1.25 | PlyrMult: 0.9\nLEGS: 1.25 | PlyrMult: 0.8\nPenetration Power(Mat. alters depth):\nTravel of 1m passes 19m of wall\nTravel of 381m passes 11.4m of wall"

//Mosin //762x54mm_hp
"weapon_upgrade_cz148"					"C.Z. 148gr FMJ|762x54mm"
"weapon_upgrade_cz148_desc"				"Spread Frac(lower = accurate): 0.28\nDmg: 200 @ 1m to 120 @ 381m\nAmmo/Plyr Mult. (Dmg * Am * Pm):\nHEAD: 5.5 | PlyrMult: 1.65\nCHEST: 5.4 | PlyrMult: 1.65\nSTOMACH: 5.4 | PlyrMult: 1.35\nARMS: 1.8 | PlyrMult: 0.9\nLEGS: 1.8 | PlyrMult: 0.8\nPenetration Power(Mat. alters depth):\nTravel of 1m passes 19m of wall\nTravel of 381m passes 9.5m of wall"

//SVD //762x54mm_ap
"weapon_upgrade_7N13_svd"					"R.U. 7N13 AP|762x54mm"
"weapon_upgrade_7N13_svd_desc"				"Spread Frac(lower = accurate): 0.88\nDmg: 200 @ 1m to 120 @ 381m\nAmmo/Plyr Mult. (Dmg * Am * Pm):\nHEAD: 6.4 | PlyrMult: 1.65\nCHEST: 6.3 | PlyrMult: 1.65\nSTOMACH: 6.3 | PlyrMult: 1.35\nARMS: 1.00 | PlyrMult: 0.9\nLEGS: 1.00 | PlyrMult: 0.8\nPenetration Power(Mat. alters depth):\nTravel of 1m passes 40m of wall\nTravel of 381m passes 20.1m of wall"

//SVD //762x54mm_sr
"weapon_upgrade_7n14_svd"					"R.U. 7N14 SR HP|762x54mm_SR"
"weapon_upgrade_7n14_svd_desc"				"Spread Frac(lower = accurate): 0.5\nDmg: 185 @ 1m to 125 @ 381m\nAmmo/Plyr Mult. (Dmg * Am * Pm):\nHEAD: 5.7 | PlyrMult: 1.65\nCHEST: 5.6 | PlyrMult: 1.65\nSTOMACH: 5.6 | PlyrMult: 1.35\nARMS: 1.25 | PlyrMult: 0.9\nLEGS: 1.25 | PlyrMult: 0.8\nPenetration Power(Mat. alters depth):\nTravel of 1m passes 19m of wall\nTravel of 381m passes 11.4m of wall"

//SVD //762x54mm_hp
"weapon_upgrade_cz148_svd"					"C.Z. 148gr FMJ|762x54mm"
"weapon_upgrade_cz148_svd_desc"				"Spread Frac(lower = accurate): 0.28\nDmg: 200 @ 1m to 120 @ 381m\nAmmo/Plyr Mult. (Dmg * Am * Pm):\nHEAD: 5.5 | PlyrMult: 1.65\nCHEST: 5.4 | PlyrMult: 1.65\nSTOMACH: 5.4 | PlyrMult: 1.35\nARMS: 1.8 | PlyrMult: 0.9\nLEGS: 1.8 | PlyrMult: 0.8\nPenetration Power(Mat. alters depth):\nTravel of 1m passes 19m of wall\nTravel of 381m passes 9.5m of wall"


//mp5, mp40 //9x19_ap
"weapon_upgrade_smg_9vbr"					"VBR 6.3mm AP|9x19"
"weapon_upgrade_smg_9vbr_desc"				"Spread Frac(lower = accurate): 0.0\nDmg: 80 @ 1m to 52 @ 152m\nAmmo/Plyr Mult. (Dmg * Am * Pm):\nHEAD: 1.45 | PlyrMult: 1.65\nCHEST: 1.35 | PlyrMult: 1.65\nSTOMACH: 1.35 | PlyrMult: 1.35\nARMS: 0.45 | PlyrMult: 0.9\nLEGS: 0.45 | PlyrMult: 0.8\nPenetration Power(Mat. alters depth):\nTravel of 1m passes 10m of wall\nTravel of 152m passes 3.8m of wall"

//mp5, mp40 //9x19_hp
"weapon_upgrade_smg_9mmhp"					"147gr JHP|9x19"
"weapon_upgrade_smg_9mmhp_desc"				"Spread Frac(lower = accurate): 0.0\nDmg: 80 @ 1m to 52 @ 152m\nAmmo/Plyr Mult. (Dmg * Am * Pm):\nHEAD: 1.05 | PlyrMult: 1.65\nCHEST: 0.95 | PlyrMult: 1.65\nSTOMACH: 0.95 | PlyrMult: 1.35\nARMS: 0.65 | PlyrMult: 0.9\nLEGS: 0.65 | PlyrMult: 0.8\nPenetration Power(Mat. alters depth):\nTravel of 1m passes 3.3m of wall\nTravel of 152m passes 1.4m of wall"

//M9, m93r, makarov //9x19_ap
"weapon_upgrade_9vbr"					"VBR 6.3mm AP|9x19"
"weapon_upgrade_9vbr_desc"				"Spread Frac(lower = accurate): 0.0\nDmg: 80 @ 1m to 52 @ 152m\nAmmo/Plyr Mult. (Dmg * Am * Pm):\nHEAD: 1.45 | PlyrMult: 1.65\nCHEST: 1.35 | PlyrMult: 1.65\nSTOMACH: 1.35 | PlyrMult: 1.35\nARMS: 0.45 | PlyrMult: 0.9\nLEGS: 0.45 | PlyrMult: 0.8\nPenetration Power(Mat. alters depth):\nTravel of 1m passes 10m of wall\nTravel of 152m passes 3.8m of wall"

//M9, m93r, makarov //9x19_hp
"weapon_upgrade_9mmhp"					"147gr JHP|9x19"
"weapon_upgrade_9mmhp_desc"				"Spread Frac(lower = accurate): 0.0\nDmg: 80 @ 1m to 52 @ 152m\nAmmo/Plyr Mult. (Dmg * Am * Pm):\nHEAD: 1.05 | PlyrMult: 1.65\nCHEST: 0.95 | PlyrMult: 1.65\nSTOMACH: 0.95 | PlyrMult: 1.35\nARMS: 0.65 | PlyrMult: 0.9\nLEGS: 0.65 | PlyrMult: 0.8\nPenetration Power(Mat. alters depth):\nTravel of 1m passes 3.3m of wall\nTravel of 152m passes 1.4m of wall"

//makarov //9x19_ap
"weapon_upgrade_mak_9vbr"					"VBR 6.3mm AP|9x19"
"weapon_upgrade_mak_9vbr_desc"				"Spread Frac(lower = accurate): 0.0\nDmg: 80 @ 1m to 52 @ 152m\nAmmo/Plyr Mult. (Dmg * Am * Pm):\nHEAD: 1.45 | PlyrMult: 1.65\nCHEST: 1.35 | PlyrMult: 1.65\nSTOMACH: 1.35 | PlyrMult: 1.35\nARMS: 0.45 | PlyrMult: 0.9\nLEGS: 0.45 | PlyrMult: 0.8\nPenetration Power(Mat. alters depth):\nTravel of 1m passes 10m of wall\nTravel of 152m passes 3.8m of wall"

//makarov //9x19_hp
"weapon_upgrade_mak_9mmhp"					"147gr JHP|9x19"
"weapon_upgrade_mak_9mmhp_desc"				"Spread Frac(lower = accurate): 0.0\nDmg: 80 @ 1m to 52 @ 152m\nAmmo/Plyr Mult. (Dmg * Am * Pm):\nHEAD: 1.05 | PlyrMult: 1.65\nCHEST: 0.95 | PlyrMult: 1.65\nSTOMACH: 0.95 | PlyrMult: 1.35\nARMS: 0.65 | PlyrMult: 0.9\nLEGS: 0.65 | PlyrMult: 0.8\nPenetration Power(Mat. alters depth):\nTravel of 1m passes 3.3m of wall\nTravel of 152m passes 1.4m of wall"

//model10 revovlver //38special_ap
"weapon_upgrade_m10_38_ap"					".38 Long Colt AP|38special"
"weapon_upgrade_m10_38_ap_desc"				"Spread Frac(lower = accurate): 0.0\nDmg: 135 @ 1m to 102 @ 152m\nAmmo/Plyr Mult. (Dmg * Am * Pm):\nHEAD: 1.8 | PlyrMult: 1.65\nCHEST: 1.7 | PlyrMult: 1.65\nSTOMACH: 1.7 | PlyrMult: 1.35\nARMS: 0.5 | PlyrMult: 0.9\nLEGS: 0.5 | PlyrMult: 0.8\nPenetration Power(Mat. alters depth):\nTravel of 1m passes 11.3m of wall\nTravel of 152m passes 6.6m of wall"


//model10 revovlver //38special_hp
"weapon_upgrade_m10_38_hp"					".38 Long Colt HP|38special"
"weapon_upgrade_m10_38_hp_desc"				"Spread Frac(lower = accurate): 0.0\nDmg: 135 @ 1m to 102 @ 152m\nAmmo/Plyr Mult. (Dmg * Am * Pm):\nHEAD: 1.3 | PlyrMult: 1.65\nCHEST: 1.2 | PlyrMult: 1.65\nSTOMACH: 1.2 | PlyrMult: 1.35\nARMS: 1.1 | PlyrMult: 0.9\nLEGS: 1.1 | PlyrMult: 0.8\nPenetration Power(Mat. alters depth):\nTravel of 1m passes 5.7m of wall\nTravel of 152m passes 4.2m of wall"

//mr96 revovlver //357_ap
"weapon_upgrade_mr96_357_ap"					".357 SW AP|357"
"weapon_upgrade_mr96_357_ap_desc"				"Spread Frac(lower = accurate): 0.0\nDmg: 145 @ 1m to 112 @ 152m\nAmmo/Plyr Mult. (Dmg * Am * Pm):\nHEAD: 2.1 | PlyrMult: 1.65\nCHEST: 2.0 | PlyrMult: 1.65\nSTOMACH: 2.0 | PlyrMult: 1.35\nARMS: 0.8 | PlyrMult: 0.9\nLEGS: 0.8 | PlyrMult: 0.8\nPenetration Power(Mat. alters depth):\nTravel of 1m passes 13.3m of wall\nTravel of 152m passes 8.5m of wall"


//mr96 revovlver //357_hp
"weapon_upgrade_mr96_357_hp"					".357 SW HP|357"
"weapon_upgrade_mr96_357_hp_desc"				"Spread Frac(lower = accurate): 0.0\nDmg: 145 @ 1m to 112 @ 152m\nAmmo/Plyr Mult. (Dmg * Am * Pm):\nHEAD: 1.0 | PlyrMult: 1.65\nCHEST: 0.9 | PlyrMult: 1.65\nSTOMACH: 0.9 | PlyrMult: 1.35\nARMS: 0.8 | PlyrMult: 0.9\nLEGS: 0.8 | PlyrMult: 0.8\nPenetration Power(Mat. alters depth):\nTravel of 1m passes 3.8m of wall\nTravel of 152m passes 2.3m of wall"

//deagle  //50ae_ap
"weapon_upgrade_deagle_50ae_ap"					".50 AE AP|50_AE"
"weapon_upgrade_deagle_50ae_ap_desc"				"Spread Frac(lower = accurate): 0.0\nDmg: 155 @ 1m to 122 @ 152m\nAmmo/Plyr Mult. (Dmg * Am * Pm):\nHEAD: 2.1 | PlyrMult: 1.65\nCHEST: 2.0 | PlyrMult: 1.65\nSTOMACH: 2.0 | PlyrMult: 1.35\nARMS: 0.8 | PlyrMult: 0.9\nLEGS: 0.8 | PlyrMult: 0.8\nPenetration Power(Mat. alters depth):\nTravel of 1m passes 13.3m of wall\nTravel of 152m passes 8.5m of wall"


//deagle  //50ae_hp
"weapon_upgrade_deagle_50ae_hp"					".50 AE HP|50_AE"
"weapon_upgrade_deagle_50ae_hp_desc"				"Spread Frac(lower = accurate): 0.0\nDmg: 155 @ 1m to 122 @ 152m\nAmmo/Plyr Mult. (Dmg * Am * Pm):\nHEAD: 1.0 | PlyrMult: 1.65\nCHEST: 0.9 | PlyrMult: 1.65\nSTOMACH: 0.9 | PlyrMult: 1.35\nARMS: 0.8 | PlyrMult: 0.9\nLEGS: 0.8 | PlyrMult: 0.8\nPenetration Power(Mat. alters depth):\nTravel of 1m passes 3.8m of wall\nTravel of 152m passes 2.3m of wall"


 //m45 //45acp_ap_pistol
"weapon_upgrade_45vbrP_ap"					"VBR-B .45 AP|45_ACP"
"weapon_upgrade_45vbrP_ap_desc"				"Spread Frac(lower = accurate): 0.0\nDmg: 95 @ 1m to 52 @ 152m\nAmmo/Plyr Mult. (Dmg * Am * Pm):\nHEAD: 1.7 | PlyrMult: 1.65\nCHEST: 1.6 | PlyrMult: 1.65\nSTOMACH: 1.6 | PlyrMult: 1.35\nARMS: 0.4 | PlyrMult: 0.9\nLEGS: 0.4 | PlyrMult: 0.8\nPenetration Power(Mat. alters depth):\nTravel of 1m passes 10.4m of wall\nTravel of 152m passes 5.7m of wall"


//m45 //45acp_hp_pistol
"weapon_upgrade_45p_hp"					"230gr JHP|45_ACP"
"weapon_upgrade_45p_hp_desc"				"Spread Frac(lower = accurate): 0.0\nDmg: 95 @ 1m to 52 @ 152m\nAmmo/Plyr Mult. (Dmg * Am * Pm):\nHEAD: 0.90 | PlyrMult: 1.65\nCHEST: 0.8 | PlyrMult: 1.65\nSTOMACH: 0.8 | PlyrMult: 1.35\nARMS: 0.7 | PlyrMult: 0.9\nLEGS: 0.7 | PlyrMult: 0.8\nPenetration Power(Mat. alters depth):\nTravel of 1m passes 2.9m of wall\nTravel of 152m passes 1.4m of wall"

//mp7 4.6 x 30 mm //45acp_ap
"weapon_upgrade_46hk_ap"					"DM11 AP|46x30mm"
"weapon_upgrade_46hk_ap_desc"				"Spread Frac(lower = accurate): 0.0\nDmg: 95 @ 1m to 52 @ 152m\nAmmo/Plyr Mult. (Dmg * Am * Pm):\nHEAD: 1.7 | PlyrMult: 1.65\nCHEST: 1.6 | PlyrMult: 1.65\nSTOMACH: 1.6 | PlyrMult: 1.35\nARMS: 0.4 | PlyrMult: 0.9\nLEGS: 0.4 | PlyrMult: 0.8\nPenetration Power(Mat. alters depth):\nTravel of 1m passes 10.4m of wall\nTravel of 152m passes 5.7m of wall"

//mp7 4.6 x 30 mm //45acp_hp
"weapon_upgrade_46hk_hp"					"31gr LE_HP|46x30mm"
"weapon_upgrade_46hk_hp_desc"				"Spread Frac(lower = accurate): 0.0\nDmg: 95 @ 1m to 52 @ 152m\nAmmo/Plyr Mult. (Dmg * Am * Pm):\nHEAD: 0.90 | PlyrMult: 1.65\nCHEST: 0.8 | PlyrMult: 1.65\nSTOMACH: 0.8 | PlyrMult: 1.35\nARMS: 0.7 | PlyrMult: 0.9\nLEGS: 0.7 | PlyrMult: 0.8\nPenetration Power(Mat. alters depth):\nTravel of 1m passes 2.9m of wall\nTravel of 152m passes 1.4m of wall"

//ump45 //45acp_ap
"weapon_upgrade_45vbr"					"VBR-B .45 AP|45_ACP"
"weapon_upgrade_45vbr_desc"				"Spread Frac(lower = accurate): 0.0\nDmg: 95 @ 1m to 52 @ 152m\nAmmo/Plyr Mult. (Dmg * Am * Pm):\nHEAD: 1.7 | PlyrMult: 1.65\nCHEST: 1.6 | PlyrMult: 1.65\nSTOMACH: 1.6 | PlyrMult: 1.35\nARMS: 0.4 | PlyrMult: 0.9\nLEGS: 0.4 | PlyrMult: 0.8\nPenetration Power(Mat. alters depth):\nTravel of 1m passes 10.4m of wall\nTravel of 152m passes 5.7m of wall"

//ump45 //45acp_hp
"weapon_upgrade_45hp"					"230gr JHP|45_ACP"
"weapon_upgrade_45hp_desc"				"Spread Frac(lower = accurate): 0.0\nDmg: 95 @ 1m to 52 @ 152m\nAmmo/Plyr Mult. (Dmg * Am * Pm):\nHEAD: 0.90 | PlyrMult: 1.65\nCHEST: 0.8 | PlyrMult: 1.65\nSTOMACH: 0.8 | PlyrMult: 1.35\nARMS: 0.7 | PlyrMult: 0.9\nLEGS: 0.7 | PlyrMult: 0.8\nPenetration Power(Mat. alters depth):\nTravel of 1m passes 2.9m of wall\nTravel of 152m passes 1.4m of wall"

//Nothing
"weapon_upgrade_9vbr_ins"				"S.E. M39/b AP"
"weapon_upgrade_9vbr_desc_ins"			"Swedish armor-piercing ammo developed in the 40's, it developed a cop-killer reputation in the U.S. and was outlawed."

//m1a1 762x33_hp
"weapon_upgrade_30car_hp"				".30 Carbine 110gr JSP|762x33"
"weapon_upgrade_30car_hp_desc"			"Spread Frac(lower = accurate): 1.5\nDmg: 100 @ 1m to 85 @ 228m\nAmmo/Plyr Mult. (Dmg * Am * Pm):\nHEAD: 1.77 | PlyrMult: 1.65\nCHEST: 1.67 | PlyrMult: 1.65\nSTOMACH: 1.67 | PlyrMult: 1.35\nARMS: 0.78 | PlyrMult: 0.9\nLEGS: 0.78 | PlyrMult: 0.8\nPenetration Power(Mat. alters depth):\nTravel of 1m passes 7.6m of wall\nTravel of 228m passes 3.8m of wall"

//m1a1 762x33_ap
"weapon_upgrade_30car_ap"				"U.S. GI .30 110gr AP|762x33"
"weapon_upgrade_30car_ap_desc"			"Spread Frac(lower = accurate): 1.5\nDmg: 100 @ 1m to 85 @ 228m\nAmmo/Plyr Mult. (Dmg * Am * Pm):\nHEAD: 2.47 | PlyrMult: 1.65\nCHEST: 2.37 | PlyrMult: 1.65\nSTOMACH: 2.37 | PlyrMult: 1.35\nARMS: 0.28 | PlyrMult: 0.9\nLEGS: 0.28 | PlyrMult: 0.8\nPenetration Power(Mat. alters depth):\nTravel of 1m passes 17.1m of wall\nTravel of 228m passes 7.6m of wall"

"weapon_upgrade_slugs"					"Tactical Slug|1 slug"
"weapon_upgrade_slugs_desc"				"Spread Frac(lower = accurate): 0.04\nDmg: 318 @ 15m to 5 @ 172m\nAmmo/Plyr Mult. (Dmg * Am * Pm):\nHEAD: 1.9 | PlyrMult: 1.65\nCHEST: 1.8 | PlyrMult: 1.65\nSTOMACH: 1.8 | PlyrMult: 1.35\nARMS: 0.8 | PlyrMult: 0.9\nLEGS: 0.8 | PlyrMult: 0.8\nPenetration Power(Mat. alters depth):\nTravel of 1.9m passes 14.2m of wall\nTravel of 152m passes 1.9 of wall"

"weapon_upgrade_commbuck"				"Civvie Buck|9 pellets"
"weapon_upgrade_commbuck_desc"			"Pellet Spread: 1.6\nDmg: 100 @ 15m to 5 @ 172m\nAmmo/Plyr Mult. (Dmg * Am * Pm):\nHEAD: 1.9 | PlyrMult: 1.65\nCHEST: 1.8 | PlyrMult: 1.65\nSTOMACH: 1.8 | PlyrMult: 1.35\nARMS: 0.8 | PlyrMult: 0.9\nLEGS: 0.8 | PlyrMult: 0.8\nPenetration Power(Mat. alters depth):\nTravel of 1.9m passes 2.9m of wall\nTravel of 152m passes <1m of wall"

"weapon_upgrade_tacbuck"				"Tactical Buck|9 pellets"
"weapon_upgrade_tacbuck_desc"			"Pellet Spread: 0.6\nDmg: 100 @ 15m to 5 @ 172m\nAmmo/Plyr Mult. (Dmg * Am * Pm):\nHEAD: 1.9 | PlyrMult: 1.65\nCHEST: 1.8 | PlyrMult: 1.65\nSTOMACH: 1.8 | PlyrMult: 1.35\nARMS: 0.8 | PlyrMult: 0.9\nLEGS: 0.8 | PlyrMult: 0.8\nPenetration Power(Mat. alters depth):\nTravel of 1.9m passes 2.9m of wall\nTravel of 152m passes <1m of wall"

"weapon_upgrade_ctrlbuck"				"Flite Control"
"weapon_upgrade_ctrlbuck_desc"			"Notorious for its extremely tight patterning, this load by Federal Premium spreads less than 0.2 inch per yard."


////////////////////Weapon Attachment Upgrades//////////////////
"aimpointcomp"							"Aimpoint Comp"
"aimpointcomp_desc"						"A red-dot site with high peripheral vision and fast target acquisition."
"aimpointmag2x"							"Aimpoint Comp2x"
"aimpointmag2x_desc"					"A red-dot site mounted with a magnifier for mid-range shooting."

"weapon_upgrade_pistoldot"			"Red Dot"
"weapon_upgrade_pistoldot_desc"		"Simple red dot sight for quicker target aquisition"

"eotech553"								"Eotech 553"
"eotech553_desc"						"A holographic reticle with high peripheral vision and fast target acquisition."
"weapon_upgrade_tac_spring_dy"				"Tactical Spring"
"weapon_upgrade_tac_spring_dy_desc"		"Recoil reduction:\nVertical: 10%"

"weapon_upgrade_foregrip_dy"			"Foregrip"
"weapon_upgrade_foregrip_dy_desc"		"Recoil Reduction:\nLateral: 25%\nVertical:12.5%"

"weapon_upgrade_bipod_dy"			"Bipod"
"weapon_upgrade_bipod_dy_desc"		"Recoil Reduction: \nHigh reduction of lateral/vertical"

"weapon_upgrade_heavybarrel_dy"			"Heavy barrel"
"weapon_upgrade_heavybarrel_dy_desc"	"Recoil Reduction:\nVertical: 10%\nDraw speed reduced by 5%"

"weapon_upgrade_silencer_dy"			"Suppressor"
"weapon_upgrade_silencer_dy_desc"			"Reduces weapon sound footprint to enemies by 50%\n--------------\nThis is a Sernix Specific Server Bot Setting"

"weapon_upgrade_silencer_pistol_dy"			"Suppressor"
"weapon_upgrade_silencer_pistol_dy_desc"			"Reduces weapon sound footprint to enemies by 50%\nDraw speed reduced by 5% (pistols only)\n--------------\nThis is a Sernix Specific Server Bot Setting"

"weapon_upgrade_flashlight_dy"			"Flashlight"
"weapon_upgrade_flashlight_dy_desc"		"Assists target discovery in darker settings\n--------------\nBot Mechanics:\n-Catches bots attention in your general direction(no aimbot).\n-Does NOT attract bot RPG's, does NOT make you a priority to bots.\n-ASK an admin before you spread misinformation"
"weapon_upgrade_lasersight_dy"			"Laser Sight"
"weapon_upgrade_lasersight_dy_desc"		"Aim assistance for when you are not looking down your sights\n--------------\nBot Mechanics:\n-Catches bots attention in your general direction(no aimbot).\n-Does NOT attract bot RPG's, does NOT make you a priority to bots.\n-ASK an admin before you spread misinformation"
//////////////////////Weapons////////////////////

//////////////////////SHOTGUNS///////////
"weapon_m590"				"M590"
"weapon_m590_desc"			"RPM: Pump | Weight: 38 Hg\nCaliber: Buckshot | Modes: Pump\nStandard Capacity: 8+1"

"weapon_nova"				"NOVA TACTICAL"
"weapon_nova_desc"			"Pump/Rel Speed: +15% | Weight: 33 Hg\nCaliber: Buckshot | Modes: Pump\nStandard Capacity: 5+1"

"weapon_toz"				"TOZ"
"weapon_toz_desc"			"RPM: Pump | Weight: 28 Hg\nCaliber: Buckshot | Modes: Pump\nStandard Capacity: 6+1"
"weapon_spas12_dy"				"SPAS-12"
"weapon_spas12_dy_desc"		"RPM: 100 | Weight: 42 Hg\nCaliber: Buckshot | Modes: Semi, Pump\nStandard Capacity: 8+1"
"weapon_ksg_dy"				"KEL-TEC KSG"
"weapon_ksg_dy_desc"		"RPM: Pump | Weight: 33 Hg\nCaliber: Buckshot | Modes: Pump\nStandard Capacity: 14+1"
/////////////////RIFLES//////////////
"weapon_galil_dy"				"GALIL"
"weapon_galil_dy_desc"			"RPM: 650 | Weight: 43 Hg\nCaliber: 556x45c | Modes: Semi, Full\nStandard Magazine Capacity: 30"
"weapon_akmg"				"AKMS"
"weapon_akmg_desc"			"RPM: 600 | Weight: 38 Hg\nCaliber: 762x39 | Modes: Semi, Full\nStandard Magazine Capacity: 30"
"weapon_ak74"				"AK-74"
"weapon_ak74_desc"			"RPM: 650 | Weight: 40 Hg\nCaliber: 545x39 | Modes: Semi, Full\nStandard Magazine Capacity: 30"
"weapon_vz58"				"VZ. 58"
"weapon_vz58_desc"			"RPM: 800 | Weight: 29 Hg\nCaliber: 762x39 | Modes: Semi, Full\nStandard Magazine Capacity: 30"
"weapon_saiga12"				"Saiga-12"
"weapon_saiga12_desc"			"RPM: 600 | Weight: 36 Hg\nCaliber: Buckshot | Modes: Semi, Full\nStandard Magazine Capacity: 8"
"weapon_m4a1"				"M4A1"
"weapon_m4a1_desc"			"RPM: 740 | Weight: 36 Hg\nCaliber: 556x45c | Modes: Semi, Full\nStandard Magazine Capacity: 30"
"weapon_m16g"				"M16A4"
"weapon_m16g_desc"			"RPM: 780 | Weight: 40 Hg\nCaliber: 556x45 | Modes: Semi, Burst\nStandard Magazine Capacity: 30"
"weapon_mk18g"				"Mk18"
"weapon_mk18g_desc"			"RPM: 950 | Weight: 34 Hg\nCaliber: 556x45c | Modes: Semi, Full\nStandard Magazine Capacity: 30"
"weapon_mk14g"				"Mk14"
"weapon_mk14g_desc"			"RPM: 710 | Weight: 63 Hg\nCaliber: 762x51 | Modes: Semi, Full\nStandard Magazine Capacity: 20"
"weapon_m107"				"M107"
"weapon_m107_desc"			"RPM: 240 | Weight: 144 Hg\nCaliber: .50 BMG | Modes: Semi\nStandard Magazine Capacity: 11"
"weapon_falg"				"FAL"
"weapon_falg_desc"			"RPM: 750 | Weight: 46 Hg\nCaliber: 762x51 | Modes: Semi, Full\nStandard Magazine Capacity: 20"
"weapon_l1a1g"				"L1A1"
"weapon_l1a1g_desc"			"RPM: 600 | Weight: 48 Hg\nCaliber: 762x51 | Modes: Semi\nStandard Magazine Capacity: 20"
"weapon_acr_dy"				"ACR"
"weapon_acr_dy_desc"			"RPM: 800 | Weight: 42 Hg\nCaliber: 556x45 | Modes: Semi, Full\nStandard Magazine Capacity: 30"

"weapon_ak12u_dy"				"AK12u Carbine"
"weapon_ak12u_dy_desc"			"RPM: 680 | Weight: 32 Hg\nCaliber: 545x39 | Modes: Semi, Full\nStandard Magazine Capacity: 30"
"weapon_g3a3_dy"				"G3A3"
"weapon_g3a3_dy_desc"			"RPM: 600 | Weight: 44 Hg\nCaliber: 762x51 | Modes: Semi, Full\nStandard Magazine Capacity: 20"

"weapon_scarl_dy"				"SCAR-L"
"weapon_scarl_dy_desc"			"RPM: 625 | Weight: 33 Hg\nCaliber: 556x45 | Modes: Semi, Full\nStandard Magazine Capacity: 30"
"weapon_scar_mk20_dy"				"SSR"
"weapon_scar_mk20_dy_desc"			"RPM: 625 | Weight: 52 Hg\nCaliber: 762x51 | Modes: Semi\nStandard Magazine Capacity: 20"
"weapon_rfb_dy"				"KEL-TEC RFB"
"weapon_rfb_dy_desc"			"RPM: 260 | Weight: 56 Hg\nCaliber: 762x51 | Modes: Semi\nStandard Magazine Capacity: 20"
"weapon_sig553_dy"				"SIG SG 553"
"weapon_sig553_dy_desc"			"RPM: 700 | Weight: 34 Hg\nCaliber: 556x45 | Modes: Semi, Full\nStandard Magazine Capacity: 30"
"weapon_g36_dy"				"G36C"
"weapon_g36_dy_desc"			"RPM: 750 | Weight: 30 Hg\nCaliber: 556x45c | Modes: Semi, Full\nStandard Magazine Capacity: 30"
"weapon_famas_dy"				"FAMAS"
"weapon_famas_dy_desc"			"RPM: 1000 | Weight: 38 Hg\nCaliber: 556x45 | Modes: Semi, Full\nStandard Magazine Capacity: 25"
"weapon_f2000_dy"				"F2000"
"weapon_f2000_dy_desc"			"RPM: 850 | Weight: 38 Hg\nCaliber: 556x45c | Modes: Semi, Full\nStandard Magazine Capacity: 30"
"weapon_sa80"				"L85A2"
"weapon_sa80_desc"			"RPM: 650 | Weight: 50 Hg\nCaliber: 556x45c | Modes: Semi, Full\nStandard Magazine Capacity: 30"
"weapon_mk18_m0"				"Mk18 Mod 0"
"weapon_mk18_m0_desc"			"RPM: 950 | Weight: 34 Hg\nCaliber: 556x45c | Modes: Semi, Full\nStandard Magazine Capacity: 20"

"weapon_aug3"				"AUG3"
"weapon_aug3_desc"			"RPM: 750 | Weight: 36 Hg\nCaliber: 556x45 | Modes: Semi, Burst, Full\nStandard Magazine Capacity: 30"

///////////SNIPER RIFLES//////////////
"weapon_sksg"				"SKS-D"
"weapon_sksg_desc"			"RPM: 600 | Weight: 48 Hg\nCaliber: 762x39 | Modes: Semi\nStandard Magazine Capacity: 30"
"weapon_ac556"				"AC-556"
"weapon_ac556_desc"			"RPM: 775 | Weight: 29 Hg\nCaliber: 556x45i | Modes: Semi, Full\nStandard Magazine Capacity: 30"
"weapon_mosing"				"MOSIN"
"weapon_mosing_desc"		"RPM: Bolt | Weight: 42 Hg\nCaliber: 762x54mm | Modes: Bolt\nStandard Capacity: 5+30 Tac. Pouch"
"weapon_m40a1g"				"M40A1"
"weapon_m40a1g_desc"		"Bolt-Speed: +10% | Weight: 68 Hg\nCaliber: 762x51mm | Modes: Bolt\nStandard Capacity: 5+30 Tac. Pouch"
"weapon_m1a1g"				"M1A1"
"weapon_m1a1g_desc"			"RPM: 600 | Weight: 26 Hg\nCaliber: 762x33 | Modes: Semi\nStandard Magazine Capacity: 15"
"weapon_m40a5_dy"			"M40A5"
"weapon_m40a5_dy_desc"		"Bolt-Speed: +15% | Weight: 72 Hg\nCaliber: 762x51mm | Modes: Bolt\nStandard Capacity: 5+30 Tac. Pouch"
"weapon_svdg"				"DRAGUNOV SVD"
"weapon_svdg_desc"			"RPM: 480 | Weight: 50 Hg\nCaliber: 762x54mm | Modes: Semi\nStandard Magazine Capacity: 10"

/////////////////LMGS//////////////
"weapon_rpkg"				"RPK"
"weapon_rpkg_desc"			"RPM: 600 | Weight: 84 Hg\nCaliber: 762x39 | Modes: Semi, Full\nStandard Magazine Capacity: 75"
"weapon_m249g"				"M249"
"weapon_m249g_desc"			"RPM: 800 | Weight: 122 Hg\nCaliber: 556x45 | Modes: Full\nStandard Magazine Capacity: 200"
"weapon_mk46g"				"MK46 Mod 0"
"weapon_mk46g_desc"			"RPM: 730 | Weight: 93 Hg\nCaliber: 556x45 | Modes: Full\nStandard Magazine Capacity: 150"
"weapon_mk48g"				"MK48 Mod 0"
"weapon_mk48g_desc"			"RPM: 710 | Weight: 142 Hg\nCaliber: 762x51 | Modes: Full\nStandard Magazine Capacity: 100"
"weapon_m60"				"M60"
"weapon_m60_desc"			"RPM: 650 | Weight: 160 Hg\nCaliber: 762x51 | Modes: Full\nStandard Magazine Capacity: 100"
"weapon_rpk74m_dy"				"RPK74M"
"weapon_rpk74m_dy_desc"			"Draw: +10% | RPM: 650 | Weight: 74 Hg\nCaliber: 545x39 | Modes: Semi, Full\nStandard Magazine Capacity: 75"



//////////////SMGS/////////////
"weapon_mp7_dy"				"MP7"
"weapon_mp7_dy_desc"		"RPM: 950 | Weight: 21 Hg\nCaliber: 45acp | Modes: Semi, Full\nStandard Magazine Capacity: 30"
"weapon_mac10_dy"				"MAC-10"
"weapon_mac10_dy_desc"		"RPM: 1090 | Weight: 30 Hg\nCaliber: 9mm | Modes: Full\nStandard Magazine Capacity: 30"
"weapon_uzi_dy"				"IMI UZI"
"weapon_uzi_dy_desc"		"RPM: 600 | Weight: 30 Hg\nCaliber: 9mm | Modes: Semi, Full\nStandard Magazine Capacity: 32"
"weapon_aks74ug"			"AKS-74U"
"weapon_aks74ug_desc"		"RPM: 700 | Weight: 32 Hg\nCaliber: 545x39 | Modes: Semi, Full\nStandard Magazine Capacity: 30"
"weapon_mp5g"				"MP5K"
"weapon_mp5g_desc"			"Draw: +15% | RPM: 900 | Weight: 23 Hg\nCaliber: 9mm | Modes: Semi, Burst, Full\nStandard Magazine Capacity: 30"
"weapon_ster_dy"				"Sterling"
"weapon_ster_dy_desc"			"Draw: +15% | RPM: 600 | Weight: 31 Hg\nCaliber: 9mm | Modes: Full\nStandard Magazine Capacity: 34"
"weapon_mp40g"				"MP40"
"weapon_mp40g_desc"			"Draw: +15% | RPM: 550 | Weight: 36 Hg\nCaliber: 9mm | Modes: Full\nStandard Magazine Capacity: 32"
"weapon_umpg"				"UMP-45"
"weapon_umpg_desc"			"RPM: 600 | Weight: 28 Hg\nCaliber: 45acp | Modes: Semi, Burst, Full\nStandard Magazine Capacity: 25"
"weapon_mp5a4_dy"				"MP5A4"
"weapon_mp5a4_dy_desc"			"Draw: +15% | RPM: 850 | Weight: 32 Hg\nCaliber: 9mm | Modes: Semi, Burst, Full\nStandard Magazine Capacity: 30"
"weapon_kriss"				"KRISS Vector"
"weapon_kriss_desc"			"RPM: 1200 | Weight: 28 Hg\nCaliber: 45acp | Modes: Semi, Burst, Full\nStandard Magazine Capacity: 30"
"weapon_czse3g"				"CZ SCORPION EVO-3"
"weapon_czse3g_desc"			"RPM: 1150 | Weight: 28 Hg\nCaliber: 9mm | Modes: Semi, Burst, Full\nStandard Magazine Capacity: 30"

////////////////PISTOLS//////////
"weapon_m45_dy"				"M45 MEUSOC"
"weapon_m45_dy_desc"			"RPM: 600 | Weight: 16 Hg\nCaliber: 45acp | Modes: Semi\nStandard Magazine Capacity: 9"

"weapon_makarov_dy"				"Makarov"
"weapon_makarov_dy_desc"		"RPM: 700 | Weight: 9 Hg\nCaliber: 9mm | Modes: Semi\nStandard Magazine Capacity: 10"

"weapon_m93"				"m93r"
"weapon_m93_desc"			"RPM: 1100 | Weight: 16 Hg\nCaliber: 9mm | Modes: Semi, Burst\nStandard Magazine Capacity: 18"

"weapon_glock18"				"GLOCK 18"
"weapon_glock18_desc"			"RPM: 700 | Weight: 8 Hg\nCaliber: 9mm | Modes: Semi, Full\nStandard Magazine Capacity: 15"

"weapon_usp"				"HK USP"
"weapon_usp_desc"			"RPM: 600 | Weight: 10 Hg\nCaliber: 45acp | Modes: Semi\nStandard Magazine Capacity: 12"

"weapon_model10_dy"				"MODEL 10"
"weapon_model10_dy_desc"			"Draw: +20% | RPM: 380 | Weight: 12 Hg\nCaliber: 38special | Modes: Semi\nStandard Magazine Capacity: 6"

"weapon_mr96_dy"				"Manurhin MR 96"
"weapon_mr96_dy_desc"			"Draw: +20% | RPM: 320 | Weight: 16 Hg\nCaliber: 357sw | Modes: Semi\nStandard Magazine Capacity: 6"
"weapon_deagle_dy"				"IMI Desert Eagle"
"weapon_deagle_dy_desc"			"RPM: 360 | Weight: 22 Hg\nCaliber: 50ae | Modes: Semi\nStandard Magazine Capacity: 7"

"weapon_kingcobra_dy"				"COLT King Cobra"
"weapon_kingcobra_dy_desc"			"Draw: +20% | RPM: 320 | Weight: 14 Hg\nCaliber: 357sw | Modes: Semi\nStandard Magazine Capacity: 6"
  
////////////////EXPLOSIVES//////////////
"weapon_f1g"				"F1 Grenade"
"weapon_f1g_desc"			"WWII-era defensive grenade with a wider lethal radius and correspondingly high chance of collateral damage."
"weapon_m67g"				"M67 Grenade"
"weapon_m67g_desc"			"Det Dmg(less at max radius): 160\nMax Det Radius: 14m\nWeight: 5Hg/1.1lbs"
"weapon_m84_dy"				"M84 Grenade"
"weapon_m84_dy_desc"		"Blind Dur: Max 14sec.|Rad: 30m\nBlind: Yes|Deafen: Yes\nWeight: 3Hg/0.6lbs"
"weapon_stungrenMK3"		"MK3 Grenade"
"weapon_stungrenMK3_desc"		"Stun Dur: Max 14sec.|Rad: 25.7m\nStun: Bots|Deafen: Yes\nWeight: 6Hg/0.6lbs"
"weapon_anm14_dy"			"AN-M14"
"weapon_anm14_dy_desc"		"Det Dmg: 100|Det Rad: 4.5m\nBurn Rad: 2-3m | Dur: 24sec.\nWeight: 10Hg/2.2lbs"
"weapon_molotov_dy"			"Molotov"
"weapon_molotov_dy_desc"		"Det Dmg: 100|Det Rad: 4.5m\nBurn Rad: 4-5m | Dur: 24sec.\nWeight: 14Hg/3lbs"
"weapon_c4_dy"			"C4"
"weapon_c4_dy_desc"		"Det Dmg(less at max radius): 304\nMax Det Radius: 18m/4.5m walls\nWeight: 55Hg/12lbs"
//Underbarrels
//m203
"weapon_m203_dy_he"				"M203 HE"
"weapon_m203_dy_he_desc"		"Det Dmg: 170|Det Rad: 11.4m\nPen Rad: 0.76m | Arm time: 120ms\nRecoil reduction: Vertical: 5%\nWeight: 14Hg/3lbs"
"weapon_m203_incen"				"M203 ANM14"
"weapon_m203_incen_desc"		"Det Dmg: 100|Det Rad: 4.5m\nBurn Rad: 2-3m | Dur: 16sec.\nRecoil reduction: Vertical: 5%\nWeight: 16Hg/3.5lbs"
"weapon_m203_dy_smoke"			"M203 SMOKE"
"weapon_m203_dy_smoke_desc"		"Provides Smokescreen on impact.\nArm time: 120ms\nRecoil reduction: Vertical: 5%\nWeight: 14Hg/3lbs"
"weapon_m203_stungrenMK3"		"M203 MK3"
"weapon_m203_stungrenMK3_desc"	"Stun Dur: Max 14sec.|Stun Rad: 25.7m\nStun: Bots|Deafen: Yes\nRecoil reduction: Vertical: 5%\nWeight: 16Hg/3.5lbs"
//GP25
"weapon_gp25_dy_he"				"GP-25 HE"
"weapon_gp25_dy_he_desc"		"Det Dmg: 170|Det Rad: 11.4m\nPen Rad: 0.76m | Arm time: 120ms\nRecoil reduction: Vertical: 5%\nWeight: 14Hg/3lbs"
"weapon_gp25_incen"				"GP-25 ANM14"
"weapon_gp25_incen_desc"		"Det Dmg: 100|Det Rad: 4.5m\nBurn Rad: 2-3m | Dur: 16sec.\nRecoil reduction: Vertical: 5%\nWeight: 16Hg/3.5lbs"
"weapon_gp25_dy_smoke"			"GP-25 SMOKE"
"weapon_gp25_dy_smoke_desc"		"Provides Smokescreen on impact.\nArm time: 120ms\nRecoil reduction: Vertical: 5%\nWeight: 14Hg/3lbs"
"weapon_gp25_stungrenMK3"		"GP-25 MK3"
"weapon_gp25_stungrenMK3_desc"	"Stun Dur: Max 6sec.|Stun Rad: 19m\nStun: Bots|Deafen: Yes\nRecoil reduction: Vertical: 5%\nWeight: 16Hg/3.5lbs"
//m320
"weapon_m320_dy_he"				"M320 HE"
"weapon_m320_dy_he_desc"		"Det Dmg: 170|Det Rad: 11.4m\nPen Rad: 0.76m | Arm time: 120ms\nRecoil reduction: Vertical: 5%\nWeight: 15Hg/3.3lbs"
"weapon_m320_incen"				"M320 ANM14"
"weapon_m320_incen_desc"		"Det Dmg: 100|Det Rad: 4.5m\nBurn Rad: 2-3m | Dur: 16sec.\nRecoil reduction: Vertical: 5%\nWeight: 17Hg/3.7lbs"
"weapon_m320_dy_smoke"			"M320 SMOKE"
"weapon_m320_dy_smoke_desc"		"Provides Smokescreen on impact.\nArm time: 50ms\nRecoil reduction: Vertical: 5%\nWeight: 15Hg/3.3lbs"
"weapon_m320_stungrenMK3"		"M320 MK3"
"weapon_m320_stungrenMK3_desc"	"Stun Dur: Max 6sec.|Stun Rad: 19m\nBlind: No|Deafen: Yes\nRecoil reduction: Vertical: 5%\nWeight: 17Hg/3.7lbs"

"weapon_m79_dy_he"				"M79 HE"
"weapon_m79_dy_he_desc"		"Det Dmg: 170|Det Rad: 11.4m\nPen Rad: 0.76m | Arm time: 120ms\nWeight: 30Hg/6.45lbs"
"weapon_m79_incen"				"M79 ANM14"
"weapon_m79_incen_desc"		"Det Dmg: 100|Det Rad: 4.5m\nBurn Rad: 2-3m | Dur: 16sec.\nWeight: 30Hg/6.45"
"weapon_m79_dy_smoke"			"M79 SMOKE"
"weapon_m79_dy_smoke_desc"		"Provides Smokescreen on impact.\nArm time: 50ms\nWeight: 30Hg/6.45"



//Launchers
"weapon_rpg7_dy"				"RPG-7"
"weapon_rpg7_dy_desc"			"Det Dmg: 230|Det Rad: 14.2m\nPenetration Radius: 2.9m | Rockets: 2\nWeight: 78Hg/17.1lbs"
"weapon_at4_dy"					"AT4"
"weapon_at4_dy_desc"			"Det Dmg: 300|Det Rad: 21m\nPen Rad: 5.7m | Rockets: 1\nWeight: 72Hg/15.8lbs"
"weapon_law_dy"					"M72 LAW"
"weapon_law_dy_desc"			"Det Dmg: 210|Det Rad: 12.3m\nPen Rad: 1.9m | Rockets: 1\nWeight: 30Hg/5.5lbs"

//////////////////scopes////////////////////////
"weapon_upgrade_scope_PKS_07"		"PKS-07"
"weapon_upgrade_scope_PKS_07_desc"	"The PKS-07 is a 7x magnification Russian scope."

//////melee///


"weapon_defib"				"Defibrillators"

////////////////////armor////////////////////////

"gear_nij_2_armor"			"NIJ II Vest"
"gear_nij_2_armor_desc"			"Damage Reduction:\nChest/Stomach: 53%\nExplosives: 40%\nWeight: 20Hg/4.5lbs"

"gear_nij_3a_armor"			"NIJ IIIa Vest"
"gear_nij_3a_armor_desc"		"Damage Reduction:\nChest/Stomach: 58%\nExplosives: 40%\nWeight: 30Hg/6.6lbs"

"gear_SAPI_armor"			"SAPI Plate"
"gear_SAPI_armor_desc"			"Damage Reduction:\nChest: 77% | Stomach: 70%\nExplosives: 20%\nWeight: 66Hg/14.6lbs"

"gear_ESAPI_armor"			"E-SAPI Plate"
"gear_ESAPI_armor_desc"			"Damage Reduction:\nChest: 80% | Stomach: 73%\nExplosives: 20%\nWeight: 75Hg/16.6lbs"

"gear_AR500_armor"			"AR500 IV Plate"
"gear_AR500_armor_desc"			"Damage Reduction:\nChest: 83% | Stomach: 76%\nExplosives: 20%\nWeight: 84Hg/18.6lbs"

"gear_daps_leba_armor1"		"DAPS-LEBA IIIa"
"gear_daps_leba_armor1_desc"		"Damage Reduction:\nARMS: 30% | Legs: 35%\nWeight: 28Hg/6.2lbs"

"gear_daps_armor1"			"DAPS IIIa"
"gear_daps_armor1_desc"			"Damage Reduction:\nARMS: 30%\nWeight: 3Hg/0.7lbs"

"gear_leba_armor1"			"LEBA Kevlar IIIa"
"gear_leba_armor1_desc"			"Damage Reduction:\nLEGS: 35%\nWeight: 17Hg/3.7lbs"

"gear_lw_helmet_sitka"			"US-Mich Helm IIIa Goggles/Sitka"
"gear_lw_helmet_sitka_desc"			"Damage Reduction:\nHead: 60%\nWeight: 22Hg/4.8lbs"
"gear_lw_helmet"				"US-Mich Helm IIIa"
"gear_lw_helmet_desc"			"Damage Reduction:\nHead: 60%\nWeight: 22Hg/4.8lbs"

"gear_devgru_1"			"Mich-Helm II - DEFAULT"
"gear_devgru_1_desc"			"Remove won't remove helm\nDamage Reduction:\nHead: 35%\nWeight: 14Hg/3.1lbs"
"gear_devgru_2"			"Mich-Helm IIa"
"gear_devgru_2_desc"			"Default: Mich II 30%\nDamage Reduction:\nUpgrade to: 40%\nWeight: 18Hg/4.0lbs"
"gear_devgru_3"			"Mich-Helm IIIa"
"gear_devgru_3_desc"			"Default: Mich II 30%\nDamage Reduction:\nUpgrade to: 45%\nWeight: 22Hg/4.9lbs"
"gear_bonnie_mask"			"Bonnie-Sitka"
"gear_bonnie_mask_desc"			"Damage Reduction: None\nWeight: None"
"gear_bonnie_nomask"			"Bonnie"
"gear_bonnie_nomask_desc"			"Damage Reduction: None\nWeight: None"
"gear_beanie_black"			"Beanie Black"
"gear_beanie_black_desc"			"Damage Reduction: None\nWeight: None"
"gear_beanie_brown"			"Beanie Brown"
"gear_beanie_brown_desc"			"Damage Reduction: None\nWeight: None"
"gear_cap_light"						"SF Cap Light"
"gear_cap_light_desc"					"Damage Reduction: None\nWeight: None"
"gear_cap_light_spec"					"SF Cap Light Spec."
"gear_cap_light_spec_desc"				"Damage Reduction: None\nWeight: None"
"gear_cap_vip_dark"						"SF Cap Dark"
"gear_cap_vip_dark_desc"				"Damage Reduction: None\nWeight: None"

"gear_tcap_light_spec"					"Tactical Cap Light Spec."
"gear_tcap_light_spec_desc"				"Damage Reduction: None\nWeight: None"
"gear_tcap_dark_spec"					"Tactical Cap Dark Spec."
"gear_tcap_dark_spec_desc"				"Damage Reduction: None\nWeight: None"

//////////////////vest////////////////////////
"gear_chest"							"Chest"
"gear_chest"							"fallback body"
"gear_chest_carrier1"					"Carrier Rig I"
"gear_chest_carrier1_desc"				"Prim. Mags: 4 | Sec. Mags: 4\nSec2. Mags: 3 | Exp. slots: 3\nSec2. Mag weight added w/ sling"
"gear_chest_carrier2"					"Carrier Rig II"
"gear_chest_carrier2_desc"				"Prim. Mags: 5 | Sec. Mags: 4\nSec2. Mags: 3 | Exp. slots: 3\nSec2. Mag weight added w/ sling"
"gear_chest_carrier3"					"Carrier Rig III"
"gear_chest_carrier3_desc"				"Prim. Mags: 6 | Sec. Mags: 5\nSec2. Mags: 3 | Exp. slots: 3\nSec2. Mag weight added w/ sling"
"gear_chest_rig1"						"Ammo Rig I"
"gear_chest_rig1_desc"					"Prim. Mags: 6 | Sec. Mags: 5\nSec2. Mags: 4 | Exp. slots: 1\nSec2. Mag weight added w/ sling"
"gear_chest_rig2"						"Ammo Rig II"
"gear_chest_rig2_desc"					"Prim. Mags: 7 | Sec. Mags: 6\nSec2. Mags: 4 | Exp. slots: 1\nSec2. Mag weight added w/ sling"
"gear_chest_rig3"						"Ammo Rig III"
"gear_chest_rig3_desc"					"Prim. Mags: 8 | Sec. Mags: 7\nSec2. Mags: 4 | Exp. slots: 1\nSec2. Mag weight added w/ sling"

"gear_sling_ammo_belt"					"Sling Mag-Belt"
"gear_sling_ammo_belt_desc"				"Enable Secondary2 Slot     \n\nEnable Carry Secondary2 Mags"
"gear_sling"					"Sling"
"gear_sling_desc"				"Enable Secondary2 Slot\nEnable Carry Secondary2 Mags\nWeight based on avg. Sec2. ammo"

"pistol_bag_1"							"Pistol Rig A"
"pistol_bag_1_desc"						"Vest pouch holding 2 extra sidearm magazines."
"pistol_bag_2"							"Pistol Rig B"
"pistol_bag_2_desc"						"2 Vest pouches totalling 4 extra sidearm magazines."

"weapon_upgrade_12_magazine_extended_dy_desc"		"Extend magsize to 12 rounds."
"weapon_upgrade_30_magazine_extended_dy_desc"		"Extend magsize to 30 rounds."
"weapon_upgrade_42_magazine_extended_dy_desc"		"Extend magsize to 42 rounds."
"weapon_upgrade_40_magazine_extended_dy_desc"		"Extend magsize to 40 rounds."
"weapon_upgrade_75_magazine_extended_dy_desc"		"Extend magsize to 75 round drum."
"weapon_upgrade_15_magazine_extended_dy_desc"		"Extend magsize to 15 rounds."

"weapon_upgrade_beta_50_dy"							"Beta Magazine"
"weapon_upgrade_50_magazine_extended_dy_desc"		"Extend magsize to 50 round beta drum."

"weapon_upgrade_beta_75_dy"							"HC Beta Magazine"
"weapon_upgrade_75_magazine_extended_dy_desc"		"Extends magsize to high capacity 75 round beta drum."

"weapon_upgrade_magazine_extended_usp_desc"		"Extends magsize for USP to 18 rounds"
"weapon_upgrade_magazine_extended_glock18_desc"		"Extends magsize for Glock18 to 33 rounds"

"weapon_quick_reload_skill"					"Quick Reload"
"weapon_quick_reload_skill_desc"			"Reload 15% faster with this weapon."

"weapon_quick_draw_holster_skill"				"Speed Holster"
"weapon_quick_draw_holster_skill_desc"			"Draw and Holster sidearms 15% faster."

"weapon_quick_draw_sling"				"Tactical Sling"
"weapon_quick_draw_sling_desc"			"Draw carbines/smgs/rifles 15% faster."

"fast_bolt_action"				"Faster Bolt-Action"
"fast_bolt_action_desc"			"Bolt-action speed is 15% faster."

"fast_pump_action"				"Faster Pump-Action"
"fast_pump_action_desc"			"Pump-action speed is 15% faster."
//////////////////gear////////////////////////

"sec_sunglasses"						"Aviators"
"sec_sunglasses_desc"					"For the incognito operator."
"op_sunglasses"							"ShooterZ"
"op_sunglasses_desc"					"If you can block a sun, you can block a gun."
"sec_sunglasses_b"						"Authoritators"
"sec_sunglasses_b_desk"					"Respect. Authority. Authoritators."
"sec_beard"								"Tactical Beard"
"sec_beard_desc"						"Much tactical - Such operator - Very beard - WOW!"
"omega_beard_head"						"Tactical Beard"
"omega_beard_head_desc"					"Self-repairing cover and concealment."
"alpha_beard_head"						"Tactical Beard"
"alpha_beard_head_desc"					"Grows proportionally to combat experience."
"face_off"								"Tactical Shemagh"
"face_off_desc"							"Keeps you tacticool. T1 Merino shorn from alpha sheep."
"tac_daps_1"							"Daps Armor"
"tac_daps_1_desc"						"Shoulder Protection"
"tac_leba_1"							"Leba Armor"
"tac_leba_1_desc"						"Leg Protection"

"weapon_healthkit_aus"					"Combat Medical Kit"
"weapon_healthkit_aus_desc"				"In Hand: 1 Minor Wound Revive\nDeployed: Heal Amt: 800 | Radius: 5m\nDeployed: Benefits when medic nearby"
//////////////gui slots/////////////////////////

"weapon_slot_primary"							"Primary"
"weapon_slot_primary_num"						"Primary %s1"
"weapon_slot_secondary"							"Secondary"
"weapon_slot_secondary_num"						"Secondary %s1"
"weapon_slot_melee"								"Melee"
"weapon_slot_melee_num"							"Melee %s1"
"weapon_slot_explosive"							"Chest Loop"
"weapon_slot_explosive_num"						"Chest Loop %s1"

"upgrade_slot_optics"							"Optics"
"upgrade_slot_ammo"								"Ammo"
"upgrade_slot_barrel"							"Barrel"
"upgrade_slot_stock"							"Stock"
"upgrade_slot_siderail"							"Misc. Rail"
"upgrade_slot_underbarrel"						"Underbarrel"
"upgrade_slot_aesthetic"						"Handguard"
"upgrade_slot_misc"								"Misc."

"gear_slot_armor"								"Tactical Armor"
"gear_slot_vest"								"Tactical Rig"
"gear_slot_accessory"							"Accessory"
"gear_slot_misc1"								"Extend Armor"
"gear_slot_misc2"								"Leg Armor"
"gear_slot_head"								"Tactical Headgear"

"gear_slot_backpack"							"Ext. Armor Selected"
}               
}